min_n,tree_depth,learn_rate,loss_reduction,.metric,.estimator,mean,n,std_err,.config
28,15,1.966466910605438e-6,3.4623254848272067,rmse,standard,2013.1783168489446,5,872.3731687527549,Model01
31,9,0.01945150310845948,0.20136393543827039,rmse,standard,3022.612150792737,5,699.6690442271605,Model02
31,3,2.4763493415620014e-4,0.6926130331750731,rmse,standard,2028.5397742049265,5,866.8242103004375,Model03
8,1,3.797261727107047e-4,1.580629220844162,rmse,standard,2011.4460111455553,5,872.554944219744,Model04
7,2,1.9867079295641278e-7,6.455039017368212e-7,rmse,standard,2013.2904393925785,5,872.3373898314497,Model05
13,15,2.541124638926875e-4,1.0261908965729535e-7,rmse,standard,2086.730352169778,5,844.8390160475939,Model06
7,6,0.05275325862173503,5.466660450952438e-5,rmse,standard,3123.6592461910363,5,678.1233922743918,Model07
39,14,1.5160836721240658e-4,2.2880350397098042e-10,rmse,standard,2025.6177549658323,5,867.3984007750846,Model08
21,10,0.02192980446257803,6.057479778357249e-7,rmse,standard,3074.4914786511013,5,772.5345932518381,Model09
24,12,1.7923402797888889e-9,2.1738567993055335e-9,rmse,standard,2013.2977222824463,5,872.3349927073228,Model10
40,14,0.02730446177546919,1.2343742577361879e-4,rmse,standard,2916.398609203618,5,753.5155856962645,Model11
37,6,0.004739389042790162,6.29885129179006e-10,rmse,standard,2229.40767259329,5,812.2092686556103,Model12
34,4,1.3491381333439146e-8,5.237908503967232,rmse,standard,2013.2977218306212,5,872.334992518154,Model13
34,9,2.5688951835635396e-6,4.436472443373345e-6,rmse,standard,2013.1242202813744,5,872.3716095223091,Model14
4,10,3.246300581557604e-7,4.284839499420491e-8,rmse,standard,2013.2798930227668,5,872.3407275756496,Model15
20,11,2.964997505123041e-9,5.902098758481747e-4,rmse,standard,2013.2977222735165,5,872.3349927096917,Model16
5,10,0.01699820066558164,3.15403081347386e-9,rmse,standard,3220.5180983822743,5,658.4803236152429,Model17
3,8,2.3006058040119672e-6,11.080598761435626,rmse,standard,2013.3323370102269,5,872.3087377962995,Model18
35,5,2.180898528896616e-10,3.293537799798444e-8,rmse,standard,2013.2977223028702,5,872.3349927005341,Model19
3,13,0.008166859382866392,0.0816746568485223,rmse,standard,3116.3431772247804,5,677.0234393001733,Model20
