Fold,mean_absolute_error,r_squared,root_mean_squared_error
1,100.59601971498897,0.003326812585809077,787.818061151673
2,125.92425680606964,8.381317247439739e-6,3762.77286752254
3,78.45092730828928,7.044971941771915e-5,462.8990194812288
4,120.56886309101209,1.649713769576788e-5,3333.1901759210814
5,105.47584150367112,1.3623922273523308e-4,1701.217679374941
Average,106.20318168480622,7.116759965810474e-4,2009.5795606902927
