Fold,mean_absolute_error,r_squared,root_mean_squared_error
1,94.98099603168443,2.0277329698531474e-4,4497.097324155302
2,105.36281760491691,8.493355982496031e-5,11260.480512044784
3,74.76063859535786,4.1653849368003006e-4,1180.0060481309354
4,76.51439716063202,2.2058229896151801e-4,1618.107078932473
5,97.2711162571349,1.2896142360148616e-4,4559.800376895641
Average,89.77799312994523,2.1075781461066186e-4,4623.0982680318275
