Fold,mean_absolute_error,r_squared,root_mean_squared_error
1,94.98306795455426,1.8595274271011536e-4,4497.097263693679
2,105.36285272912555,8.893521425804914e-5,11260.480511659776
3,74.76450875232057,2.085881762813939e-4,1180.0057576534643
4,76.51784346247051,1.1699666719590392e-5,1618.106897460067
5,97.27115728353962,1.0956011399419444e-4,4559.800375673997
Average,89.7798860364021,1.2094718279266865e-4,4623.098161228197
